Project 1: Wrangling, Exploration, Visualization
…
Project_df %>% group_by(Oscar) %>% summarise(n())

## # A tibble: 2 x 2
##   Oscar `n()`
##   <chr> <int>
## 1 N      8777
## 2 Y       318

Project_df %>% group_by(original_language) %>% summarise(n = n()) %>% 
    arrange(desc(n))

## # A tibble: 38 x 2
##    original_language     n
##    <chr>             <int>
##  1 en                 7163
##  2 ja                  565
##  3 es                  389
##  4 fr                  254
##  5 ko                  137
##  6 zh                   94
##  7 it                   80
##  8 cn                   69
##  9 de                   68
## 10 ru                   62
## #  with 28 more rows

Project_df %>% filter(Oscar == "Y") %>% group_by(original_language) %>% 
    summarise(n())

## # A tibble: 3 x 2
##   original_language `n()`
##   <chr>             <int>
## 1 en                  314
## 2 es                    1
## 3 fr                    3

Project_df %>% filter(Oscar == "N") %>% group_by(original_language) %>% 
    summarise(n())

## # A tibble: 38 x 2
##    original_language `n()`
##    <chr>             <int>
##  1 ar                    2
##  2 bn                    1
##  3 cn                   69
##  4 cs                    3
##  5 da                   21
##  6 de                   68
##  7 el                    2
##  8 en                 6849
##  9 es                  388
## 10 eu                    2
## #  with 28 more rows
…
Project_df %>% group_by(Oscar) %>% summarise(sum(is.na(genre)))

## # A tibble: 2 x 2
##   Oscar `sum(is.na(genre))`
##   <chr>               <int>
## 1 N                       0
## 2 Y                       0

Project_df %>% group_by(Directors) %>% summarise(p = mean(popularity)) %>% 
    arrange(desc(p))

## # A tibble: 171 x 2
##    Directors                                                 p
##    <chr>                                                 <dbl>
##  1 James Cameron                                         172. 
##  2 Todd Phillips                                         134. 
##  3 Neill Blomkamp                                        116. 
##  4 Ryan Coogler                                          101. 
##  5 Christopher Nolan                                      91.2
##  6 Mel Gibson                                             91.1
##  7 John Lee Hancock                                       86.6
##  8 Peter Jackson                                          82.8
##  9 Lee Unkrich                                            77.7
## 10 Linn Patrick, Pete Docter, Bob Peterson, Peter Docter  76.1
## #  with 161 more rows

Project_df %>% group_by(title) %>% summarise(popularity, vote_average, 
    Oscar) %>% arrange(desc(popularity))

## # A tibble: 9,095 x 4
## # Groups:   title [8,878]
##    title                                      popularity vote_average Oscar
##    <chr>                                           <dbl>        <dbl> <chr>
##  1 Venom                                           3012.          6.8 N    
##  2 Deathstroke: Knights & Dragons - The Movie      1787.          7   N    
##  3                     1431.          7.3 N    
##  4                      910.          8.4 N    
##  5                                        889.          7.6 N    
##  6 Ava                                              470.          6   N    
##  7 Comment je suis devenu super-hros               441.          6.1 N    
##  8 Avatar                                           402.          7.5 Y    
##  9 Knowing                                          358.          6.1 N    
## 10 After We Collided                                334.          7.3 N    
## #  with 9,085 more rows

genrestr <- Project_df %>% filter(Oscar == "Y") %>% select(genre)
genrewords <- genrestr %>% str_c(collapse = " ") %>% str_replace_all("[^a-zA-Z0-9 ]", 
    "") %>% strsplit(" ") %>% unlist()
genres <- as.data.frame(genrewords)
genres %>% group_by(genrewords) %>% summarise(n = n()) %>% arrange(desc(n))

## # A tibble: 21 x 2
##    genrewords     n
##    <fct>      <int>
##  1 Drama        271
##  2 Romance       82
##  3 History       62
##  4 Thriller      59
##  5 Comedy        53
##  6 Crime         49
##  7 War           36
##  8 Action        34
##  9 Adventure     32
## 10 Fantasy       21
## #  with 11 more rows
…
